<?xml version="1.0" encoding="UTF-8" standalone="no"?>
<!-- Created with Inkscape (http://www.inkscape.org/) -->
<svg
   xmlns:dc="http://purl.org/dc/elements/1.1/"
   xmlns:cc="http://web.resource.org/cc/"
   xmlns:rdf="http://www.w3.org/1999/02/22-rdf-syntax-ns#"
   xmlns:svg="http://www.w3.org/2000/svg"
   xmlns="http://www.w3.org/2000/svg"
   xmlns:xlink="http://www.w3.org/1999/xlink"
   xmlns:sodipodi="http://sodipodi.sourceforge.net/DTD/sodipodi-0.dtd"
   xmlns:inkscape="http://www.inkscape.org/namespaces/inkscape"
   width="32"
   height="32"
   id="svg2"
   sodipodi:version="0.32"
   inkscape:version="0.45+devel"
   version="1.0"
   sodipodi:docname="bug-buddy.svg"
   sodipodi:docbase="/home/needcoffee/Desktop/bug-buddy (Kopie)/32x32"
   inkscape:output_extension="org.inkscape.output.svg.inkscape"
   inkscape:export-filename="/home/needcoffee/Desktop/bug-buddy (Kopie)/32x32/bug-buddy.png"
   inkscape:export-xdpi="90"
   inkscape:export-ydpi="90"
   sodipodi:modified="TRUE">
  <defs
     id="defs4">
    <linearGradient
       id="linearGradient21252">
      <stop
         id="stop21254"
         offset="0"
         style="stop-color:#ffffff;stop-opacity:1;" />
      <stop
         id="stop21256"
         offset="1"
         style="stop-color:#ffffff;stop-opacity:0;" />
    </linearGradient>
    <linearGradient
       inkscape:collect="always"
       id="linearGradient20125">
      <stop
         style="stop-color:#000000;stop-opacity:1;"
         offset="0"
         id="stop20127" />
      <stop
         style="stop-color:#000000;stop-opacity:0;"
         offset="1"
         id="stop20129" />
    </linearGradient>
    <linearGradient
       id="linearGradient16727">
      <stop
         style="stop-color:#000000;stop-opacity:1;"
         offset="0"
         id="stop16729" />
      <stop
         style="stop-color:#2e3436;stop-opacity:1;"
         offset="1"
         id="stop16731" />
    </linearGradient>
    <linearGradient
       id="linearGradient10800">
      <stop
         style="stop-color:#343434;stop-opacity:1;"
         offset="0"
         id="stop10802" />
      <stop
         style="stop-color:#ce5c00;stop-opacity:1;"
         offset="1"
         id="stop10804" />
    </linearGradient>
    <linearGradient
       id="linearGradient7862">
      <stop
         style="stop-color:#ffffff;stop-opacity:1;"
         offset="0"
         id="stop7864" />
      <stop
         style="stop-color:#ffffff;stop-opacity:0.46739131;"
         offset="1"
         id="stop7866" />
    </linearGradient>
    <linearGradient
       id="linearGradient6878">
      <stop
         style="stop-color:#fcaf3e;stop-opacity:1;"
         offset="0"
         id="stop6880" />
      <stop
         style="stop-color:#f57900;stop-opacity:1;"
         offset="1"
         id="stop6882" />
    </linearGradient>
    <linearGradient
       inkscape:collect="always"
       id="linearGradient9617">
      <stop
         style="stop-color:#ffffff;stop-opacity:1;"
         offset="0"
         id="stop9619" />
      <stop
         style="stop-color:#ffffff;stop-opacity:0;"
         offset="1"
         id="stop9621" />
    </linearGradient>
    <linearGradient
       id="linearGradient7627">
      <stop
         style="stop-color:#2e3436;stop-opacity:1;"
         offset="0"
         id="stop7629" />
      <stop
         style="stop-color:#000000;stop-opacity:1;"
         offset="1"
         id="stop7631" />
    </linearGradient>
    <linearGradient
       id="linearGradient3821">
      <stop
         style="stop-color:#75796d;stop-opacity:1;"
         offset="0"
         id="stop3823" />
      <stop
         style="stop-color:#000000;stop-opacity:1;"
         offset="1"
         id="stop3825" />
    </linearGradient>
    <radialGradient
       inkscape:collect="always"
       xlink:href="#linearGradient7627"
       id="radialGradient22256"
       gradientUnits="userSpaceOnUse"
       gradientTransform="matrix(0.3936144,0.3936144,0.1534688,-0.1534688,25.174411,3.4615266)"
       cx="11.095629"
       cy="3.1346092"
       fx="11.095629"
       fy="3.1346092"
       r="2.5092411" />
    <radialGradient
       inkscape:collect="always"
       xlink:href="#linearGradient7627"
       id="radialGradient22258"
       gradientUnits="userSpaceOnUse"
       gradientTransform="matrix(0.3936144,0.3936144,0.48495,-0.48495,24.065921,4.570016)"
       cx="7.3500023"
       cy="4.9504719"
       fx="7.3500023"
       fy="4.9504719"
       r="1.9361346" />
    <radialGradient
       inkscape:collect="always"
       xlink:href="#linearGradient7627"
       id="radialGradient22260"
       gradientUnits="userSpaceOnUse"
       gradientTransform="matrix(0.3936144,0.3936144,1.0436711,-1.0436711,19.305129,9.3308088)"
       cx="5.3143821"
       cy="8.2922049"
       fx="5.3143821"
       fy="8.2922049"
       r="1.0651822" />
    <radialGradient
       inkscape:collect="always"
       xlink:href="#linearGradient7627"
       id="radialGradient22262"
       gradientUnits="userSpaceOnUse"
       gradientTransform="matrix(0.3936144,0.3936144,-0.6294932,0.6294932,27.459415,1.1765223)"
       cx="20.317476"
       cy="5.4575567"
       fx="20.317476"
       fy="5.4575567"
       r="1.635862" />
    <radialGradient
       inkscape:collect="always"
       xlink:href="#linearGradient7627"
       id="radialGradient22264"
       gradientUnits="userSpaceOnUse"
       gradientTransform="matrix(0.3936144,0.3936144,-0.2373051,0.2373051,25.840921,2.7950167)"
       cx="18.051439"
       cy="2.9653726"
       fx="18.051439"
       fy="2.9653726"
       r="2.4392891" />
    <radialGradient
       inkscape:collect="always"
       xlink:href="#linearGradient7627"
       id="radialGradient22266"
       gradientUnits="userSpaceOnUse"
       gradientTransform="matrix(0.3936144,0.3936144,-0.1349124,0.1349124,25.674625,2.9613122)"
       cx="14.963775"
       cy="2.524915"
       fx="14.963775"
       fy="2.524915"
       r="2.4867301" />
    <radialGradient
       inkscape:collect="always"
       xlink:href="#linearGradient7627"
       id="radialGradient22268"
       gradientUnits="userSpaceOnUse"
       gradientTransform="matrix(-0.3936144,-0.3936144,-0.6294932,0.6294932,46.781305,20.498412)"
       cx="20.317476"
       cy="5.4575567"
       fx="20.317476"
       fy="5.4575567"
       r="1.635862" />
    <radialGradient
       inkscape:collect="always"
       xlink:href="#linearGradient7627"
       id="radialGradient22270"
       gradientUnits="userSpaceOnUse"
       gradientTransform="matrix(-0.3936144,-0.3936144,-0.2373051,0.2373051,45.162811,22.116907)"
       cx="18.051439"
       cy="2.9653726"
       fx="18.051439"
       fy="2.9653726"
       r="2.4392891" />
    <radialGradient
       inkscape:collect="always"
       xlink:href="#linearGradient7627"
       id="radialGradient22272"
       gradientUnits="userSpaceOnUse"
       gradientTransform="matrix(-0.3936144,-0.3936144,-0.1349124,0.1349124,44.996515,22.283202)"
       cx="14.963775"
       cy="2.524915"
       fx="14.963775"
       fy="2.524915"
       r="2.4867301" />
    <radialGradient
       inkscape:collect="always"
       xlink:href="#linearGradient7627"
       id="radialGradient22274"
       gradientUnits="userSpaceOnUse"
       gradientTransform="matrix(-0.3936144,-0.3936144,0.1534688,-0.1534688,44.496301,22.783417)"
       cx="11.095629"
       cy="3.1346092"
       fx="11.095629"
       fy="3.1346092"
       r="2.5092411" />
    <radialGradient
       inkscape:collect="always"
       xlink:href="#linearGradient7627"
       id="radialGradient22276"
       gradientUnits="userSpaceOnUse"
       gradientTransform="matrix(-0.3936144,-0.3936144,0.48495,-0.48495,43.387811,23.891906)"
       cx="7.3500023"
       cy="4.9504719"
       fx="7.3500023"
       fy="4.9504719"
       r="1.9361346" />
    <radialGradient
       inkscape:collect="always"
       xlink:href="#linearGradient7627"
       id="radialGradient22278"
       gradientUnits="userSpaceOnUse"
       gradientTransform="matrix(-0.3936144,-0.3936144,1.0436711,-1.0436711,38.627019,28.652699)"
       cx="5.3143821"
       cy="8.2922049"
       fx="5.3143821"
       fy="8.2922049"
       r="1.0651822" />
    <linearGradient
       inkscape:collect="always"
       xlink:href="#linearGradient7862"
       id="linearGradient2755"
       gradientUnits="userSpaceOnUse"
       gradientTransform="matrix(0.4113887,0.4113887,-0.4113887,0.4113887,15.685068,-3.9762259)"
       x1="10.85426"
       y1="9.0594749"
       x2="29.972343"
       y2="12.551182" />
    <radialGradient
       inkscape:collect="always"
       xlink:href="#linearGradient3821"
       id="radialGradient2758"
       gradientUnits="userSpaceOnUse"
       gradientTransform="matrix(0.3132443,0.3132443,-0.2610019,0.2610019,16.057968,0.6607191)"
       cx="22.320988"
       cy="8.7810698"
       fx="22.320988"
       fy="8.7810698"
       r="5.8765426" />
    <linearGradient
       inkscape:collect="always"
       xlink:href="#linearGradient10800"
       id="linearGradient2761"
       gradientUnits="userSpaceOnUse"
       gradientTransform="matrix(0.4113887,0.4113887,-0.4113887,0.4113887,15.685068,-3.9762259)"
       x1="13.675855"
       y1="12.46873"
       x2="13.675855"
       y2="44.6875" />
    <linearGradient
       inkscape:collect="always"
       xlink:href="#linearGradient10800"
       id="linearGradient2764"
       gradientUnits="userSpaceOnUse"
       gradientTransform="matrix(0.4113887,0.4113887,-0.4113887,0.4113887,15.685068,-3.9762259)"
       x1="23.6875"
       y1="12.46873"
       x2="23.6875"
       y2="44.6875" />
    <radialGradient
       inkscape:collect="always"
       xlink:href="#linearGradient7862"
       id="radialGradient2767"
       gradientUnits="userSpaceOnUse"
       gradientTransform="matrix(1.3627356,0.6711906,-1.707065,3.3944857,35.478597,-91.290129)"
       cx="17.97797"
       cy="26.878088"
       fx="17.97797"
       fy="26.878088"
       r="4.4293375" />
    <radialGradient
       inkscape:collect="always"
       xlink:href="#linearGradient7862"
       id="radialGradient2770"
       gradientUnits="userSpaceOnUse"
       gradientTransform="matrix(2.27252,1.0543493,-1.950103,3.9720328,29.035997,-102.85522)"
       cx="15.165148"
       cy="24.656099"
       fx="15.165148"
       fy="24.656099"
       r="4.4293375" />
    <radialGradient
       inkscape:collect="always"
       xlink:href="#linearGradient21252"
       id="radialGradient2773"
       gradientUnits="userSpaceOnUse"
       gradientTransform="matrix(1.2601657,0.3407766,-0.4844076,1.7570113,9.8698861,-20.200121)"
       cx="9.4155846"
       cy="11.496181"
       fx="9.4155846"
       fy="11.496181"
       r="9.890625" />
    <radialGradient
       inkscape:collect="always"
       xlink:href="#linearGradient6878"
       id="radialGradient2776"
       gradientUnits="userSpaceOnUse"
       gradientTransform="matrix(-0.1808983,-0.1808983,1.0747414,-1.0747414,-8.9001704,49.252248)"
       cx="24.363298"
       cy="28.883881"
       fx="24.363298"
       fy="28.883881"
       r="9.90625" />
    <radialGradient
       inkscape:collect="always"
       xlink:href="#linearGradient6878"
       id="radialGradient2779"
       gradientUnits="userSpaceOnUse"
       gradientTransform="matrix(0.1871556,0.1871556,1.0747414,-1.0747414,-17.758731,40.393687)"
       cx="24.363298"
       cy="28.883881"
       fx="24.363298"
       fy="28.883881"
       r="9.90625" />
    <linearGradient
       inkscape:collect="always"
       xlink:href="#linearGradient9617"
       id="linearGradient2782"
       gradientUnits="userSpaceOnUse"
       gradientTransform="matrix(0.4792116,0.4792116,-0.356517,0.356517,11.805893,-3.0536361)"
       x1="30.365795"
       y1="31.133732"
       x2="30.602362"
       y2="58.328846" />
    <radialGradient
       inkscape:collect="always"
       xlink:href="#linearGradient3821"
       id="radialGradient2785"
       gradientUnits="userSpaceOnUse"
       gradientTransform="matrix(0.5717572,0.5717572,-1.0648227,1.0648227,28.578394,-24.268328)"
       cx="24"
       cy="28.363541"
       fx="24"
       fy="28.363541"
       r="6.7860088" />
    <radialGradient
       inkscape:collect="always"
       xlink:href="#linearGradient16727"
       id="radialGradient2788"
       gradientUnits="userSpaceOnUse"
       gradientTransform="matrix(0.4113887,0.4113887,-0.3616059,0.3616059,14.237944,-2.5291025)"
       cx="24.703125"
       cy="29.068731"
       fx="24.703125"
       fy="29.068731"
       r="18.515625" />
    <radialGradient
       inkscape:collect="always"
       xlink:href="#linearGradient20125"
       id="radialGradient2791"
       gradientUnits="userSpaceOnUse"
       gradientTransform="matrix(0.3417936,0.3297186,-0.4254427,0.4410232,18.354376,-0.1343598)"
       cx="21.991045"
       cy="26.89328"
       fx="21.991045"
       fy="26.89328"
       r="15.02314" />
  </defs>
  <sodipodi:namedview
     id="base"
     pagecolor="#ffffff"
     bordercolor="#666666"
     borderopacity="1.0"
     inkscape:pageopacity="0.0"
     inkscape:pageshadow="2"
     inkscape:zoom="1"
     inkscape:cx="18"
     inkscape:cy="15"
     inkscape:document-units="px"
     inkscape:current-layer="layer3"
     width="32px"
     height="32px"
     borderlayer="true"
     inkscape:showpageshadow="false"
     inkscape:window-width="1280"
     inkscape:window-height="952"
     inkscape:window-x="0"
     inkscape:window-y="25" />
  <metadata
     id="metadata7">
    <rdf:RDF>
      <cc:Work
         rdf:about="">
        <dc:format>image/svg+xml</dc:format>
        <dc:type
           rdf:resource="http://purl.org/dc/dcmitype/StillImage" />
        <dc:title>bug-buddy</dc:title>
        <dc:date>2007-11-02</dc:date>
        <dc:creator>
          <cc:Agent>
            <dc:title>Sebastian Kraft</dc:title>
          </cc:Agent>
        </dc:creator>
        <cc:license
           rdf:resource="http://creativecommons.org/licenses/by-sa/2.5/" />
        <dc:rights>
          <cc:Agent>
            <dc:title>Sebastian Kraft</dc:title>
          </cc:Agent>
        </dc:rights>
        <dc:language>de-DE</dc:language>
        <dc:subject>
          <rdf:Bag>
            <rdf:li>bug-buddy</rdf:li>
          </rdf:Bag>
        </dc:subject>
        <dc:description>bug-buddy icon for the Tango Desktop Project</dc:description>
        <dc:contributor>
          <cc:Agent>
            <dc:title>Sebastian Kraft</dc:title>
          </cc:Agent>
        </dc:contributor>
      </cc:Work>
      <cc:License
         rdf:about="http://creativecommons.org/licenses/by-sa/2.5/">
        <cc:permits
           rdf:resource="http://web.resource.org/cc/Reproduction" />
        <cc:permits
           rdf:resource="http://web.resource.org/cc/Distribution" />
        <cc:requires
           rdf:resource="http://web.resource.org/cc/Notice" />
        <cc:requires
           rdf:resource="http://web.resource.org/cc/Attribution" />
        <cc:permits
           rdf:resource="http://web.resource.org/cc/DerivativeWorks" />
        <cc:requires
           rdf:resource="http://web.resource.org/cc/ShareAlike" />
      </cc:License>
    </rdf:RDF>
  </metadata>
  <g
     inkscape:groupmode="layer"
     id="layer3"
     inkscape:label="01">
    <g
       id="g3777">
      <g
         transform="matrix(0.6541381,0,0,0.6541381,0.1449302,0.4564403)"
         id="g17946">
        <path
           sodipodi:nodetypes="cccc"
           id="path6628"
           d="M 30.625458,8.7206253 L 29.53787,6.0926765 L 28.762696,6.6326936 L 30.625458,8.7206253 z"
           style="fill:url(#radialGradient22256);fill-opacity:1;stroke:none;stroke-width:1;stroke-linecap:square;stroke-linejoin:round;stroke-miterlimit:4;stroke-dashoffset:0;stroke-opacity:1" />
        <path
           style="fill:url(#radialGradient22258);fill-opacity:1;stroke:none;stroke-width:1;stroke-linecap:square;stroke-linejoin:round;stroke-miterlimit:4;stroke-dashoffset:0;stroke-opacity:1"
           d="M 29.182882,6.7633706 L 29.977208,3.8019824 L 29.089188,3.8087017 L 29.182882,6.7633706 z"
           id="path6630"
           sodipodi:nodetypes="cccc" />
        <path
           sodipodi:nodetypes="cccc"
           id="path6632"
           d="M 29.358851,4.2992624 L 31.797869,0.9515633 L 30.553253,1.427777 L 29.358851,4.2992624 z"
           style="fill:url(#radialGradient22260);fill-opacity:1;stroke:none;stroke-width:1;stroke-linecap:square;stroke-linejoin:round;stroke-miterlimit:4;stroke-dashoffset:0;stroke-opacity:1" />
        <path
           style="fill:url(#radialGradient22262);fill-opacity:1;stroke:none;stroke-width:1;stroke-linecap:square;stroke-linejoin:round;stroke-miterlimit:4;stroke-dashoffset:0;stroke-opacity:1"
           d="M 31.635307,14.282931 L 32.051167,11.291476 L 32.908269,11.436838 L 31.635307,14.282931 z"
           id="rect6614"
           sodipodi:nodetypes="cccc" />
        <path
           sodipodi:nodetypes="cccc"
           id="path6617"
           d="M 32.623813,12.143017 L 31.241112,9.685161 L 32.087047,9.2908283 L 32.623813,12.143017 z"
           style="fill:url(#radialGradient22264);fill-opacity:1;stroke:none;stroke-width:1;stroke-linecap:square;stroke-linejoin:round;stroke-miterlimit:4;stroke-dashoffset:0;stroke-opacity:1" />
        <path
           style="fill:url(#radialGradient22266);fill-opacity:1;stroke:none;stroke-width:1;stroke-linecap:square;stroke-linejoin:round;stroke-miterlimit:4;stroke-dashoffset:0;stroke-opacity:1"
           d="M 32.21817,10.155308 L 29.913744,8.5526973 L 30.580619,7.877609 L 32.21817,10.155308 z"
           id="path6619"
           sodipodi:nodetypes="cccc" />
        <path
           sodipodi:nodetypes="cccc"
           id="path7679"
           d="M 33.674896,16.32252 L 36.666352,15.906661 L 36.52099,15.049558 L 33.674896,16.32252 z"
           style="fill:url(#radialGradient22268);fill-opacity:1;stroke:none;stroke-width:1;stroke-linecap:square;stroke-linejoin:round;stroke-miterlimit:4;stroke-dashoffset:0;stroke-opacity:1" />
        <path
           style="fill:url(#radialGradient22270);fill-opacity:1;stroke:none;stroke-width:1;stroke-linecap:square;stroke-linejoin:round;stroke-miterlimit:4;stroke-dashoffset:0;stroke-opacity:1"
           d="M 35.814811,15.334014 L 38.272666,16.716716 L 38.667,15.87078 L 35.814811,15.334014 z"
           id="path7681"
           sodipodi:nodetypes="cccc" />
        <path
           sodipodi:nodetypes="cccc"
           id="path7683"
           d="M 37.80252,15.739657 L 39.40513,18.044084 L 40.080219,17.377209 L 37.80252,15.739657 z"
           style="fill:url(#radialGradient22272);fill-opacity:1;stroke:none;stroke-width:1;stroke-linecap:square;stroke-linejoin:round;stroke-miterlimit:4;stroke-dashoffset:0;stroke-opacity:1" />
        <path
           style="fill:url(#radialGradient22274);fill-opacity:1;stroke:none;stroke-width:1;stroke-linecap:square;stroke-linejoin:round;stroke-miterlimit:4;stroke-dashoffset:0;stroke-opacity:1"
           d="M 39.237202,17.332369 L 41.865151,18.419957 L 41.325134,19.195132 L 39.237202,17.332369 z"
           id="path7685"
           sodipodi:nodetypes="cccc" />
        <path
           sodipodi:nodetypes="cccc"
           id="path7687"
           d="M 41.194457,18.774946 L 44.155845,17.98062 L 44.149126,18.868639 L 41.194457,18.774946 z"
           style="fill:url(#radialGradient22276);fill-opacity:1;stroke:none;stroke-width:1;stroke-linecap:square;stroke-linejoin:round;stroke-miterlimit:4;stroke-dashoffset:0;stroke-opacity:1" />
        <path
           style="fill:url(#radialGradient22278);fill-opacity:1;stroke:none;stroke-width:1;stroke-linecap:square;stroke-linejoin:round;stroke-miterlimit:4;stroke-dashoffset:0;stroke-opacity:1"
           d="M 43.658565,18.598976 L 47.006265,16.403581 L 46.53005,17.404574 L 43.658565,18.598976 z"
           id="path7689"
           sodipodi:nodetypes="cccc" />
      </g>
      <path
         style="opacity:0.6;color:#000000;fill:url(#radialGradient2791);fill-opacity:1;fill-rule:evenodd;stroke:none;stroke-width:1px;stroke-linecap:butt;stroke-linejoin:miter;marker:none;marker-start:none;marker-mid:none;marker-end:none;stroke-miterlimit:4;stroke-dashoffset:0;stroke-opacity:1;visibility:visible;display:inline;overflow:visible;enable-background:accumulate"
         d="M 19.773148,24.944412 C 15.471751,29.230118 9.2975983,30.034995 5.9915602,26.741016 C 2.6855211,23.447037 3.4933457,17.295407 7.7947422,13.009703 C 12.096139,8.7239971 18.270292,7.9191187 21.57633,11.213098 C 24.882369,14.507077 24.074545,20.658706 19.773148,24.944412 z"
         id="path14570" />
      <path
         sodipodi:nodetypes="cccccccccccccccccccccccccccccccccccccccccccccc"
         id="rect11805"
         d="M 13.416002,30.921106 L 14.630884,27.803551 L 14.964059,27.670463 L 18.911898,20.874222 L 17.947705,20.527113 L 13.969063,27.260799 L 14.090937,27.623568 L 13.416002,30.921106 z M 1.106481,18.753 L 4.5261496,18.598729 L 4.8237765,18.786175 L 11.596892,14.74196 L 11.26264,13.764912 L 4.4141132,17.817323 L 4.3333111,18.045925 L 1.106481,18.753 z M 6.7155341,10.960734 L 8.9871457,11.052317 L 9.1838666,11.218581 L 14.103792,12.23506 L 14.309487,10.743776 L 9.2993534,10.306891 L 9.064281,10.460946 L 6.7155341,10.960734 z M 22.453698,24.814555 L 22.331566,22.468354 L 22.420048,22.246999 L 21.123112,17.377419 L 19.696108,17.827375 L 21.572853,22.529398 L 21.778763,22.661192 L 22.453698,24.814555 z M 25.654815,17.898082 L 24.311375,15.551881 L 24.290828,15.155912 L 20.351758,15.089069 L 23.989977,16.104685 L 24.002833,16.117541 L 25.654815,17.898082 z M 13.570273,6.5591814 L 15.453662,8.2625877 L 15.415094,8.2754441 L 16.353575,11.836527 L 16.425584,7.9437536 L 16.109312,8.018326 L 13.570273,6.5591814 z"
         style="fill:url(#radialGradient2788);fill-opacity:1;stroke:none;stroke-width:1;stroke-linecap:round;stroke-linejoin:round;stroke-miterlimit:4;stroke-dashoffset:0;stroke-opacity:1" />
      <path
         sodipodi:nodetypes="csssc"
         id="path3778"
         d="M 17.280761,21.410773 C 14.907718,23.783815 10.438379,25.599498 8.296646,23.457766 C 6.154914,21.316033 7.9705961,16.846693 10.343638,14.473651 C 12.716681,12.100608 16.803547,10.556029 18.945279,12.697761 C 21.087012,14.839493 19.653803,19.03773 17.280761,21.410773 z"
         style="color:#000000;fill:url(#radialGradient2785);fill-opacity:1;fill-rule:evenodd;stroke:#2e3436;stroke-width:1.00000012px;stroke-linecap:butt;stroke-linejoin:miter;marker:none;marker-start:none;marker-mid:none;marker-end:none;stroke-miterlimit:4;stroke-dashoffset:0;stroke-opacity:1;visibility:visible;display:inline;overflow:visible;enable-background:accumulate" />
      <path
         sodipodi:nodetypes="csssc"
         style="color:#000000;fill:none;fill-opacity:1;fill-rule:evenodd;stroke:url(#linearGradient2782);stroke-width:1.00000012px;stroke-linecap:butt;stroke-linejoin:miter;marker:none;marker-start:none;marker-mid:none;marker-end:none;stroke-miterlimit:4;stroke-dashoffset:0;stroke-opacity:1;visibility:visible;display:inline;overflow:visible;enable-background:accumulate"
         d="M 15.883771,21.492556 C 13.461007,23.91532 10.688857,24.282217 9.1372087,22.730568 C 7.5855598,21.178919 7.8390921,18.293406 10.261857,15.870641 C 12.684621,13.447877 17.090796,11.560319 18.642444,13.111968 C 20.194093,14.663617 18.306535,19.069792 15.883771,21.492556 z"
         id="path3804" />
      <path
         id="path3766"
         d="M 21.714483,12.723584 C 21.274351,12.286473 20.597512,12.025969 19.618972,12.01651 C 19.287344,12.376542 10.439775,21.99709 8.2543593,24.949542 C 8.8726231,24.896139 13.079686,26.834993 19.040457,20.874222 C 21.676639,18.238042 23.31587,14.313982 21.714483,12.723584 z M 19.618972,12.01651 C 19.609794,12.016421 19.60249,12.016554 19.59326,12.01651 L 19.323286,12.286484 C 19.378828,12.235216 19.602208,12.032005 19.618972,12.01651 z"
         style="color:#000000;fill:url(#radialGradient2779);fill-opacity:1;fill-rule:evenodd;stroke:none;stroke-width:1px;stroke-linecap:butt;stroke-linejoin:miter;marker:none;marker-start:none;marker-mid:none;marker-end:none;stroke-miterlimit:4;stroke-dashoffset:0;stroke-opacity:1;visibility:visible;display:inline;overflow:visible;enable-background:accumulate" />
      <path
         style="color:#000000;fill:url(#radialGradient2776);fill-opacity:1;fill-rule:evenodd;stroke:none;stroke-width:1px;stroke-linecap:butt;stroke-linejoin:miter;marker:none;marker-start:none;marker-mid:none;marker-end:none;stroke-miterlimit:4;stroke-dashoffset:0;stroke-opacity:1;visibility:visible;display:inline;overflow:visible;enable-background:accumulate"
         d="M 18.967243,9.9763438 C 19.389689,10.401811 19.634524,11.06298 19.627467,12.025005 C 19.26791,12.357108 9.6602832,21.217598 6.7206547,23.415837 C 6.7834997,22.807015 4.9473857,18.702693 10.908156,12.741922 C 13.544337,10.10574 17.430202,8.4283136 18.967243,9.9763438 z M 19.627467,12.025005 C 19.627401,12.034028 19.627148,12.041212 19.627037,12.050287 L 19.357064,12.320261 C 19.408402,12.26479 19.61195,12.041748 19.627467,12.025005 z"
         id="path11796" />
      <path
         id="path6886"
         d="M 18.328298,9.851635 C 16.819693,8.7046934 13.737298,9.9686583 10.936095,12.769861 C 8.8739458,14.832011 7.7664128,16.694822 7.189985,18.279996 C 9.2191606,16.808752 11.780612,16.381213 14.16729,17.003815 C 16.693263,14.725959 18.658298,12.926004 19.269765,12.361521 C 19.273282,11.128247 18.918622,10.300438 18.328298,9.851635 z M 21.447153,13.021913 C 20.990068,12.614924 20.308654,12.371729 19.346681,12.361302 C 18.840928,12.910978 17.128902,14.791334 14.922937,17.245226 C 16.098067,17.669683 17.212299,18.351847 18.160345,19.299893 C 18.579442,19.718989 18.942063,20.156352 19.259007,20.629961 C 21.748864,18.012245 23.076599,14.472777 21.447153,13.021913 z M 19.346681,12.361302 C 19.427495,12.273469 19.758143,11.924274 19.758143,11.924274 C 19.758143,11.924274 19.386991,12.277886 19.282548,12.374304 C 19.305474,12.374292 19.324057,12.361057 19.346681,12.361302 z"
         style="opacity:0.6;color:#000000;fill:url(#radialGradient2773);fill-opacity:1;fill-rule:evenodd;stroke:none;stroke-width:1px;stroke-linecap:butt;stroke-linejoin:miter;marker:none;marker-start:none;marker-mid:none;marker-end:none;stroke-miterlimit:4;stroke-dashoffset:0;stroke-opacity:1;visibility:visible;display:inline;overflow:visible;enable-background:accumulate" />
      <path
         sodipodi:nodetypes="cscsc"
         id="path7870"
         d="M 21.3948,13.500073 C 20.541548,12.73588 20.111812,12.536451 17.605139,15.128657 C 12.925751,19.966144 10.437112,23.228477 9.2852129,24.578014 C 9.8051951,24.461774 13.148934,26.02531 18.795173,20.379071 C 21.292251,17.881994 22.303902,14.792659 21.3948,13.500073 z"
         style="color:#000000;fill:none;fill-opacity:1;fill-rule:evenodd;stroke:url(#radialGradient2770);stroke-width:1.00000012px;stroke-linecap:butt;stroke-linejoin:miter;marker:none;marker-start:none;marker-mid:none;marker-end:none;stroke-miterlimit:4;stroke-dashoffset:0;stroke-opacity:1;visibility:visible;display:inline;overflow:visible;enable-background:accumulate" />
      <path
         style="color:#000000;fill:none;fill-opacity:1;fill-rule:evenodd;stroke:url(#radialGradient2767);stroke-width:1.00000012px;stroke-linecap:butt;stroke-linejoin:miter;marker:none;marker-start:none;marker-mid:none;marker-end:none;stroke-miterlimit:4;stroke-dashoffset:0;stroke-opacity:1;visibility:visible;display:inline;overflow:visible;enable-background:accumulate"
         d="M 18.281064,10.284105 C 18.91953,11.251984 19.006754,11.618873 16.393468,14.144113 C 11.51666,18.858179 8.4189712,21.098331 7.0568051,22.257051 C 7.1695903,21.728665 5.7141261,18.479157 11.404268,12.789016 C 13.920761,10.272522 17.194691,9.0220924 18.281064,10.284105 z"
         id="path7875"
         sodipodi:nodetypes="cscsc" />
      <path
         style="color:#000000;fill:none;fill-opacity:1;fill-rule:evenodd;stroke:url(#linearGradient2764);stroke-width:1.00000012px;stroke-linecap:butt;stroke-linejoin:miter;marker:none;marker-start:none;marker-mid:none;marker-end:none;stroke-miterlimit:4;stroke-dashoffset:0;stroke-opacity:1;visibility:visible;display:inline;overflow:visible;enable-background:accumulate"
         d="M 21.746003,12.755104 C 21.296095,12.308217 20.60881,12.037266 19.619258,12.016796 C 19.287947,12.377145 10.448993,22.006308 8.2721257,24.967308 C 8.8966843,24.9202 13.17224,26.927548 19.133011,20.966777 C 21.769193,18.330596 23.382961,14.381073 21.746003,12.755104 z M 19.619258,12.016796 C 19.609977,12.016604 19.602594,12.016657 19.59326,12.01651 L 19.323286,12.286484 C 19.378876,12.235264 19.60248,12.032278 19.619258,12.016796 z"
         id="path11802" />
      <path
         id="path11800"
         d="M 18.919964,9.929064 C 19.357075,10.369196 19.617579,11.046035 19.627038,12.024575 C 19.267005,12.356204 9.6464574,21.203773 6.6940058,23.389188 C 6.7474083,22.770925 4.8085539,18.563861 10.769325,12.60309 C 13.405506,9.9669085 17.329566,8.3276777 18.919964,9.929064 z M 19.627038,12.024575 C 19.627126,12.033754 19.626994,12.041057 19.627038,12.050287 L 19.357064,12.320261 C 19.408332,12.26472 19.611542,12.041339 19.627038,12.024575 z"
         style="color:#000000;fill:none;fill-opacity:1;fill-rule:evenodd;stroke:url(#linearGradient2761);stroke-width:1.00000012px;stroke-linecap:butt;stroke-linejoin:miter;marker:none;marker-start:none;marker-mid:none;marker-end:none;stroke-miterlimit:4;stroke-dashoffset:0;stroke-opacity:1;visibility:visible;display:inline;overflow:visible;enable-background:accumulate" />
      <path
         sodipodi:nodetypes="czcsc"
         id="path3781"
         d="M 22.361173,13.074826 C 20.388184,11.530741 18.37177,13.382642 18.37177,13.382642 C 18.37177,13.382642 20.084838,11.134841 18.679586,9.3932386 C 19.403088,8.6697363 21.506709,8.7065904 22.277265,9.4771468 C 23.046724,10.246606 23.084675,12.351324 22.361173,13.074826 z"
         style="color:#000000;fill:url(#radialGradient2758);fill-opacity:1;fill-rule:evenodd;stroke:none;stroke-width:0.99999994px;stroke-linecap:butt;stroke-linejoin:miter;marker:none;marker-start:none;marker-mid:none;marker-end:none;stroke-miterlimit:4;stroke-dashoffset:0;stroke-opacity:1;visibility:visible;display:inline;overflow:visible;enable-background:accumulate" />
      <path
         style="color:#000000;fill:none;fill-opacity:1;fill-rule:evenodd;stroke:url(#linearGradient2755);stroke-width:1.00000012;stroke-linecap:butt;stroke-linejoin:miter;marker:none;marker-start:none;marker-mid:none;marker-end:none;stroke-miterlimit:4;stroke-dasharray:none;stroke-dashoffset:0;stroke-opacity:1;visibility:visible;display:inline;overflow:visible;enable-background:accumulate"
         d="M 22.053604,12.508249 C 20.527209,11.072899 18.503589,13.190403 18.503589,13.190403 C 18.503589,13.190403 20.675531,11.222733 19.18574,9.5478317 C 19.740313,8.9932599 21.149268,8.9105716 21.966344,9.727647 C 22.783419,10.544723 22.608176,11.953678 22.053604,12.508249 z"
         id="path3829"
         sodipodi:nodetypes="czcsc" />
      <path
         style="color:#000000;fill:none;fill-opacity:1;fill-rule:evenodd;stroke:#2e3436;stroke-width:1.00000012;stroke-linecap:round;stroke-linejoin:round;marker:none;marker-start:none;marker-mid:none;marker-end:none;stroke-miterlimit:4;stroke-dasharray:none;stroke-dashoffset:0;stroke-opacity:1;visibility:visible;display:inline;overflow:visible;enable-background:accumulate"
         d="M 22.438585,12.997412 C 20.141656,11.777268 18.260659,13.493752 18.260659,13.493752 C 18.260659,13.493752 19.977141,11.705309 18.756998,9.3158252 C 19.480501,8.592323 21.503,8.5480555 22.354678,9.3997335 C 23.125234,10.17029 23.162088,12.27391 22.438585,12.997412 z"
         id="path9625"
         sodipodi:nodetypes="csczc" />
    </g>
  </g>
</svg>
